(kicad_symbol_lib (version 20201005) (generator kicad_symbol_editor)
  (symbol "9X2G304SL:PI7C9X2G304SL" (pin_names (offset 1.016)) (in_bom yes) (on_board yes)
    (property "Reference" "U" (id 0) (at 5.08 6.35 0)
      (effects (font (size 1.524 1.524)) (justify left))
    )
    (property "Value" "PI7C9X2G304SL" (id 1) (at 5.08 3.81 0)
      (effects (font (size 1.524 1.524)) (justify left))
    )
    (property "Footprint" "Package_QFP:LQFP-128_14x14mm_P0.4mm" (id 2) (at 5.08 1.27 0)
      (effects (font (size 1.524 1.524)) (justify left) hide)
    )
    (property "Datasheet" "" (id 3) (at 5.08 -3.81 0)
      (effects (font (size 1.524 1.524)) (justify left) hide)
    )
    (symbol "PI7C9X2G304SL_1_1"
      (rectangle (start 5.08 2.54) (end 27.94 -327.66)
        (stroke (width 0)) (fill (type background))
      )
      (pin power_in line (at 0 0 0) (length 5.08)
        (name "VDDR" (effects (font (size 1.27 1.27))))
        (number "1" (effects (font (size 1.27 1.27))))
      )
      (pin power_in line (at 0 -2.54 0) (length 5.08)
        (name "VSS" (effects (font (size 1.27 1.27))))
        (number "2" (effects (font (size 1.27 1.27))))
      )
      (pin power_in line (at 0 -5.08 0) (length 5.08)
        (name "VDDC" (effects (font (size 1.27 1.27))))
        (number "3" (effects (font (size 1.27 1.27))))
      )
      (pin power_in line (at 0 -7.62 0) (length 5.08)
        (name "VSS" (effects (font (size 1.27 1.27))))
        (number "4" (effects (font (size 1.27 1.27))))
      )
      (pin output line (at 0 -10.16 0) (length 5.08)
        (name "DWNRST__L[1]" (effects (font (size 1.27 1.27))))
        (number "5" (effects (font (size 1.27 1.27))))
      )
      (pin output line (at 0 -12.7 0) (length 5.08)
        (name "DWNRST__L[2]" (effects (font (size 1.27 1.27))))
        (number "6" (effects (font (size 1.27 1.27))))
      )
      (pin unconnected line (at 0 -15.24 0) (length 5.08)
        (name "NC" (effects (font (size 1.27 1.27))))
        (number "7" (effects (font (size 1.27 1.27))))
      )
      (pin power_in line (at 0 -17.78 0) (length 5.08)
        (name "VDDR" (effects (font (size 1.27 1.27))))
        (number "8" (effects (font (size 1.27 1.27))))
      )
      (pin input line (at 0 -20.32 0) (length 5.08)
        (name "TEST_1" (effects (font (size 1.27 1.27))))
        (number "9" (effects (font (size 1.27 1.27))))
      )
      (pin input line (at 0 -22.86 0) (length 5.08)
        (name "PERST__L" (effects (font (size 1.27 1.27))))
        (number "10" (effects (font (size 1.27 1.27))))
      )
      (pin power_in line (at 0 -25.4 0) (length 5.08)
        (name "VSS" (effects (font (size 1.27 1.27))))
        (number "11" (effects (font (size 1.27 1.27))))
      )
      (pin power_in line (at 0 -27.94 0) (length 5.08)
        (name "VSS" (effects (font (size 1.27 1.27))))
        (number "12" (effects (font (size 1.27 1.27))))
      )
      (pin power_in line (at 0 -30.48 0) (length 5.08)
        (name "VDDCAUX" (effects (font (size 1.27 1.27))))
        (number "13" (effects (font (size 1.27 1.27))))
      )
      (pin power_in line (at 0 -33.02 0) (length 5.08)
        (name "VDDCAUX" (effects (font (size 1.27 1.27))))
        (number "14" (effects (font (size 1.27 1.27))))
      )
      (pin power_in line (at 0 -35.56 0) (length 5.08)
        (name "VAUX" (effects (font (size 1.27 1.27))))
        (number "15" (effects (font (size 1.27 1.27))))
      )
      (pin input line (at 0 -38.1 0) (length 5.08)
        (name "TEST_2" (effects (font (size 1.27 1.27))))
        (number "16" (effects (font (size 1.27 1.27))))
      )
      (pin input line (at 0 -40.64 0) (length 5.08)
        (name "TEST_3" (effects (font (size 1.27 1.27))))
        (number "17" (effects (font (size 1.27 1.27))))
      )
      (pin input line (at 0 -43.18 0) (length 5.08)
        (name "VC1_EN" (effects (font (size 1.27 1.27))))
        (number "18" (effects (font (size 1.27 1.27))))
      )
      (pin input line (at 0 -45.72 0) (length 5.08)
        (name "PRSNT_[1]" (effects (font (size 1.27 1.27))))
        (number "19" (effects (font (size 1.27 1.27))))
      )
      (pin input line (at 0 -48.26 0) (length 5.08)
        (name "PRSNT_[2]" (effects (font (size 1.27 1.27))))
        (number "20" (effects (font (size 1.27 1.27))))
      )
      (pin unconnected line (at 0 -50.8 0) (length 5.08)
        (name "NC" (effects (font (size 1.27 1.27))))
        (number "21" (effects (font (size 1.27 1.27))))
      )
      (pin input line (at 0 -53.34 0) (length 5.08)
        (name "TEST_4" (effects (font (size 1.27 1.27))))
        (number "22" (effects (font (size 1.27 1.27))))
      )
      (pin power_in line (at 0 -55.88 0) (length 5.08)
        (name "VDDC" (effects (font (size 1.27 1.27))))
        (number "23" (effects (font (size 1.27 1.27))))
      )
      (pin input line (at 0 -58.42 0) (length 5.08)
        (name "RXPOLINV_DIS" (effects (font (size 1.27 1.27))))
        (number "24" (effects (font (size 1.27 1.27))))
      )
      (pin input line (at 0 -60.96 0) (length 5.08)
        (name "TEST_5" (effects (font (size 1.27 1.27))))
        (number "25" (effects (font (size 1.27 1.27))))
      )
      (pin input line (at 0 -63.5 0) (length 5.08)
        (name "SMBCLK" (effects (font (size 1.27 1.27))))
        (number "26" (effects (font (size 1.27 1.27))))
      )
      (pin bidirectional line (at 0 -66.04 0) (length 5.08)
        (name "SMBDAT_A" (effects (font (size 1.27 1.27))))
        (number "27" (effects (font (size 1.27 1.27))))
      )
      (pin input line (at 0 -68.58 0) (length 5.08)
        (name "PWR_SAV" (effects (font (size 1.27 1.27))))
        (number "28" (effects (font (size 1.27 1.27))))
      )
      (pin power_in line (at 0 -71.12 0) (length 5.08)
        (name "VDDC" (effects (font (size 1.27 1.27))))
        (number "29" (effects (font (size 1.27 1.27))))
      )
      (pin power_in line (at 0 -73.66 0) (length 5.08)
        (name "VSS" (effects (font (size 1.27 1.27))))
        (number "30" (effects (font (size 1.27 1.27))))
      )
      (pin power_in line (at 0 -76.2 0) (length 5.08)
        (name "VDDC" (effects (font (size 1.27 1.27))))
        (number "31" (effects (font (size 1.27 1.27))))
      )
      (pin power_in line (at 0 -78.74 0) (length 5.08)
        (name "VSS" (effects (font (size 1.27 1.27))))
        (number "32" (effects (font (size 1.27 1.27))))
      )
      (pin input line (at 0 -81.28 0) (length 5.08)
        (name "SLOT_CLK" (effects (font (size 1.27 1.27))))
        (number "33" (effects (font (size 1.27 1.27))))
      )
      (pin power_in line (at 0 -83.82 0) (length 5.08)
        (name "VSS" (effects (font (size 1.27 1.27))))
        (number "34" (effects (font (size 1.27 1.27))))
      )
      (pin bidirectional line (at 0 -86.36 0) (length 5.08)
        (name "GPIO[1]" (effects (font (size 1.27 1.27))))
        (number "35" (effects (font (size 1.27 1.27))))
      )
      (pin bidirectional line (at 0 -88.9 0) (length 5.08)
        (name "GPIO[0]" (effects (font (size 1.27 1.27))))
        (number "36" (effects (font (size 1.27 1.27))))
      )
      (pin bidirectional line (at 0 -91.44 0) (length 5.08)
        (name "GPIO[2]" (effects (font (size 1.27 1.27))))
        (number "37" (effects (font (size 1.27 1.27))))
      )
      (pin bidirectional line (at 0 -93.98 0) (length 5.08)
        (name "GPIO[3]" (effects (font (size 1.27 1.27))))
        (number "38" (effects (font (size 1.27 1.27))))
      )
      (pin bidirectional line (at 0 -96.52 0) (length 5.08)
        (name "GPIO[4]" (effects (font (size 1.27 1.27))))
        (number "39" (effects (font (size 1.27 1.27))))
      )
      (pin power_in line (at 0 -99.06 0) (length 5.08)
        (name "VDDC" (effects (font (size 1.27 1.27))))
        (number "40" (effects (font (size 1.27 1.27))))
      )
      (pin power_in line (at 0 -101.6 0) (length 5.08)
        (name "VSS" (effects (font (size 1.27 1.27))))
        (number "41" (effects (font (size 1.27 1.27))))
      )
      (pin bidirectional line (at 0 -104.14 0) (length 5.08)
        (name "GPIO[5]" (effects (font (size 1.27 1.27))))
        (number "42" (effects (font (size 1.27 1.27))))
      )
      (pin bidirectional line (at 0 -106.68 0) (length 5.08)
        (name "GPIO[6]" (effects (font (size 1.27 1.27))))
        (number "43" (effects (font (size 1.27 1.27))))
      )
      (pin bidirectional line (at 0 -109.22 0) (length 5.08)
        (name "GPIO[7]" (effects (font (size 1.27 1.27))))
        (number "44" (effects (font (size 1.27 1.27))))
      )
      (pin input line (at 0 -111.76 0) (length 5.08)
        (name "SLOT__IMP[1]" (effects (font (size 1.27 1.27))))
        (number "45" (effects (font (size 1.27 1.27))))
      )
      (pin input line (at 0 -114.3 0) (length 5.08)
        (name "SLOT__IMP[2]" (effects (font (size 1.27 1.27))))
        (number "46" (effects (font (size 1.27 1.27))))
      )
      (pin unconnected line (at 0 -116.84 0) (length 5.08)
        (name "NC" (effects (font (size 1.27 1.27))))
        (number "47" (effects (font (size 1.27 1.27))))
      )
      (pin unconnected line (at 0 -119.38 0) (length 5.08)
        (name "NC" (effects (font (size 1.27 1.27))))
        (number "48" (effects (font (size 1.27 1.27))))
      )
      (pin power_in line (at 0 -121.92 0) (length 5.08)
        (name "VDDR" (effects (font (size 1.27 1.27))))
        (number "49" (effects (font (size 1.27 1.27))))
      )
      (pin power_in line (at 0 -124.46 0) (length 5.08)
        (name "VSS" (effects (font (size 1.27 1.27))))
        (number "50" (effects (font (size 1.27 1.27))))
      )
      (pin input line (at 0 -127 0) (length 5.08)
        (name "TEST_6" (effects (font (size 1.27 1.27))))
        (number "51" (effects (font (size 1.27 1.27))))
      )
      (pin unconnected line (at 0 -129.54 0) (length 5.08)
        (name "NC" (effects (font (size 1.27 1.27))))
        (number "52" (effects (font (size 1.27 1.27))))
      )
      (pin input line (at 0 -132.08 0) (length 5.08)
        (name "PL_512B" (effects (font (size 1.27 1.27))))
        (number "53" (effects (font (size 1.27 1.27))))
      )
      (pin unconnected line (at 0 -134.62 0) (length 5.08)
        (name "NC" (effects (font (size 1.27 1.27))))
        (number "54" (effects (font (size 1.27 1.27))))
      )
      (pin power_in line (at 0 -137.16 0) (length 5.08)
        (name "VDDC" (effects (font (size 1.27 1.27))))
        (number "55" (effects (font (size 1.27 1.27))))
      )
      (pin power_in line (at 0 -139.7 0) (length 5.08)
        (name "VSS" (effects (font (size 1.27 1.27))))
        (number "56" (effects (font (size 1.27 1.27))))
      )
      (pin unconnected line (at 0 -142.24 0) (length 5.08)
        (name "NC" (effects (font (size 1.27 1.27))))
        (number "57" (effects (font (size 1.27 1.27))))
      )
      (pin unconnected line (at 0 -144.78 0) (length 5.08)
        (name "NC" (effects (font (size 1.27 1.27))))
        (number "58" (effects (font (size 1.27 1.27))))
      )
      (pin unconnected line (at 0 -147.32 0) (length 5.08)
        (name "NC" (effects (font (size 1.27 1.27))))
        (number "59" (effects (font (size 1.27 1.27))))
      )
      (pin input line (at 0 -149.86 0) (length 5.08)
        (name "CLKBUF_PD" (effects (font (size 1.27 1.27))))
        (number "60" (effects (font (size 1.27 1.27))))
      )
      (pin power_in line (at 0 -152.4 0) (length 5.08)
        (name "VSS" (effects (font (size 1.27 1.27))))
        (number "61" (effects (font (size 1.27 1.27))))
      )
      (pin power_in line (at 0 -154.94 0) (length 5.08)
        (name "VDDC" (effects (font (size 1.27 1.27))))
        (number "62" (effects (font (size 1.27 1.27))))
      )
      (pin power_in line (at 0 -157.48 0) (length 5.08)
        (name "VSS" (effects (font (size 1.27 1.27))))
        (number "63" (effects (font (size 1.27 1.27))))
      )
      (pin power_in line (at 0 -160.02 0) (length 5.08)
        (name "VDDR" (effects (font (size 1.27 1.27))))
        (number "64" (effects (font (size 1.27 1.27))))
      )
      (pin power_in line (at 0 -162.56 0) (length 5.08)
        (name "VDDC" (effects (font (size 1.27 1.27))))
        (number "65" (effects (font (size 1.27 1.27))))
      )
      (pin power_in line (at 0 -165.1 0) (length 5.08)
        (name "VSS" (effects (font (size 1.27 1.27))))
        (number "66" (effects (font (size 1.27 1.27))))
      )
      (pin output line (at 0 -167.64 0) (length 5.08)
        (name "PORT_ST_ATUS[0]" (effects (font (size 1.27 1.27))))
        (number "67" (effects (font (size 1.27 1.27))))
      )
      (pin output line (at 0 -170.18 0) (length 5.08)
        (name "PORT_ST_ATUS[1]" (effects (font (size 1.27 1.27))))
        (number "68" (effects (font (size 1.27 1.27))))
      )
      (pin output line (at 0 -172.72 0) (length 5.08)
        (name "PORT_ST_ATUS[2]" (effects (font (size 1.27 1.27))))
        (number "69" (effects (font (size 1.27 1.27))))
      )
      (pin output line (at 0 -175.26 0) (length 5.08)
        (name "EECLK" (effects (font (size 1.27 1.27))))
        (number "70" (effects (font (size 1.27 1.27))))
      )
      (pin bidirectional line (at 0 -177.8 0) (length 5.08)
        (name "EEPD" (effects (font (size 1.27 1.27))))
        (number "71" (effects (font (size 1.27 1.27))))
      )
      (pin bidirectional line (at 0 -180.34 0) (length 5.08)
        (name "SCAN_EN" (effects (font (size 1.27 1.27))))
        (number "72" (effects (font (size 1.27 1.27))))
      )
      (pin input line (at 0 -182.88 0) (length 5.08)
        (name "REFCLKI_N" (effects (font (size 1.27 1.27))))
        (number "73" (effects (font (size 1.27 1.27))))
      )
      (pin input line (at 0 -185.42 0) (length 5.08)
        (name "REFCLKI_P" (effects (font (size 1.27 1.27))))
        (number "74" (effects (font (size 1.27 1.27))))
      )
      (pin unconnected line (at 0 -187.96 0) (length 5.08)
        (name "NC" (effects (font (size 1.27 1.27))))
        (number "75" (effects (font (size 1.27 1.27))))
      )
      (pin unconnected line (at 0 -190.5 0) (length 5.08)
        (name "NC" (effects (font (size 1.27 1.27))))
        (number "76" (effects (font (size 1.27 1.27))))
      )
      (pin output line (at 0 -193.04 0) (length 5.08)
        (name "REFCLKO_N[2]" (effects (font (size 1.27 1.27))))
        (number "77" (effects (font (size 1.27 1.27))))
      )
      (pin output line (at 0 -195.58 0) (length 5.08)
        (name "REFCLKO_P[2]" (effects (font (size 1.27 1.27))))
        (number "78" (effects (font (size 1.27 1.27))))
      )
      (pin power_in line (at 0 -198.12 0) (length 5.08)
        (name "CVDDR" (effects (font (size 1.27 1.27))))
        (number "79" (effects (font (size 1.27 1.27))))
      )
      (pin output line (at 0 -200.66 0) (length 5.08)
        (name "REFCLKO_N[1]" (effects (font (size 1.27 1.27))))
        (number "80" (effects (font (size 1.27 1.27))))
      )
      (pin output line (at 0 -203.2 0) (length 5.08)
        (name "REFCLKO_P[1]" (effects (font (size 1.27 1.27))))
        (number "81" (effects (font (size 1.27 1.27))))
      )
      (pin power_in line (at 0 -205.74 0) (length 5.08)
        (name "CVDDR" (effects (font (size 1.27 1.27))))
        (number "82" (effects (font (size 1.27 1.27))))
      )
      (pin output line (at 0 -208.28 0) (length 5.08)
        (name "REFCLKO_N[0]" (effects (font (size 1.27 1.27))))
        (number "83" (effects (font (size 1.27 1.27))))
      )
      (pin power_in line (at 0 -210.82 0) (length 5.08)
        (name "CVDDR" (effects (font (size 1.27 1.27))))
        (number "84" (effects (font (size 1.27 1.27))))
      )
      (pin output line (at 0 -213.36 0) (length 5.08)
        (name "REFCLKO_P[0]" (effects (font (size 1.27 1.27))))
        (number "85" (effects (font (size 1.27 1.27))))
      )
      (pin input line (at 0 -215.9 0) (length 5.08)
        (name "IREF" (effects (font (size 1.27 1.27))))
        (number "86" (effects (font (size 1.27 1.27))))
      )
      (pin power_in line (at 0 -218.44 0) (length 5.08)
        (name "VSS" (effects (font (size 1.27 1.27))))
        (number "87" (effects (font (size 1.27 1.27))))
      )
      (pin output line (at 0 -220.98 0) (length 5.08)
        (name "T_DO" (effects (font (size 1.27 1.27))))
        (number "88" (effects (font (size 1.27 1.27))))
      )
      (pin input line (at 0 -223.52 0) (length 5.08)
        (name "T_CK" (effects (font (size 1.27 1.27))))
        (number "89" (effects (font (size 1.27 1.27))))
      )
      (pin power_in line (at 0 -226.06 0) (length 5.08)
        (name "VSS" (effects (font (size 1.27 1.27))))
        (number "90" (effects (font (size 1.27 1.27))))
      )
      (pin power_in line (at 0 -228.6 0) (length 5.08)
        (name "VDDC" (effects (font (size 1.27 1.27))))
        (number "91" (effects (font (size 1.27 1.27))))
      )
      (pin input line (at 0 -231.14 0) (length 5.08)
        (name "T_MS" (effects (font (size 1.27 1.27))))
        (number "92" (effects (font (size 1.27 1.27))))
      )
      (pin input line (at 0 -233.68 0) (length 5.08)
        (name "T_DI" (effects (font (size 1.27 1.27))))
        (number "93" (effects (font (size 1.27 1.27))))
      )
      (pin input line (at 0 -236.22 0) (length 5.08)
        (name "T_RST__L" (effects (font (size 1.27 1.27))))
        (number "94" (effects (font (size 1.27 1.27))))
      )
      (pin power_in line (at 0 -238.76 0) (length 5.08)
        (name "VSS" (effects (font (size 1.27 1.27))))
        (number "95" (effects (font (size 1.27 1.27))))
      )
      (pin power_in line (at 0 -241.3 0) (length 5.08)
        (name "VDDR" (effects (font (size 1.27 1.27))))
        (number "96" (effects (font (size 1.27 1.27))))
      )
      (pin input line (at 0 -243.84 0) (length 5.08)
        (name "PERP[1]" (effects (font (size 1.27 1.27))))
        (number "97" (effects (font (size 1.27 1.27))))
      )
      (pin input line (at 0 -246.38 0) (length 5.08)
        (name "PERN[1]" (effects (font (size 1.27 1.27))))
        (number "98" (effects (font (size 1.27 1.27))))
      )
      (pin power_in line (at 0 -248.92 0) (length 5.08)
        (name "AVDD" (effects (font (size 1.27 1.27))))
        (number "99" (effects (font (size 1.27 1.27))))
      )
      (pin output line (at 0 -251.46 0) (length 5.08)
        (name "PET_P[1]" (effects (font (size 1.27 1.27))))
        (number "100" (effects (font (size 1.27 1.27))))
      )
      (pin output line (at 0 -254 0) (length 5.08)
        (name "PET_N[1]" (effects (font (size 1.27 1.27))))
        (number "101" (effects (font (size 1.27 1.27))))
      )
      (pin input line (at 0 -256.54 0) (length 5.08)
        (name "PERP[2]" (effects (font (size 1.27 1.27))))
        (number "102" (effects (font (size 1.27 1.27))))
      )
      (pin input line (at 0 -259.08 0) (length 5.08)
        (name "PERN[2]" (effects (font (size 1.27 1.27))))
        (number "103" (effects (font (size 1.27 1.27))))
      )
      (pin power_in line (at 0 -261.62 0) (length 5.08)
        (name "VSS" (effects (font (size 1.27 1.27))))
        (number "104" (effects (font (size 1.27 1.27))))
      )
      (pin power_in line (at 0 -264.16 0) (length 5.08)
        (name "AVDD" (effects (font (size 1.27 1.27))))
        (number "105" (effects (font (size 1.27 1.27))))
      )
      (pin output line (at 0 -266.7 0) (length 5.08)
        (name "PET_P[2]" (effects (font (size 1.27 1.27))))
        (number "106" (effects (font (size 1.27 1.27))))
      )
      (pin output line (at 0 -269.24 0) (length 5.08)
        (name "PET_N[2]" (effects (font (size 1.27 1.27))))
        (number "107" (effects (font (size 1.27 1.27))))
      )
      (pin power_in line (at 0 -271.78 0) (length 5.08)
        (name "AVDD" (effects (font (size 1.27 1.27))))
        (number "108" (effects (font (size 1.27 1.27))))
      )
      (pin power_in line (at 0 -274.32 0) (length 5.08)
        (name "CGND" (effects (font (size 1.27 1.27))))
        (number "109" (effects (font (size 1.27 1.27))))
      )
      (pin input line (at 0 -276.86 0) (length 5.08)
        (name "REFCLKP" (effects (font (size 1.27 1.27))))
        (number "110" (effects (font (size 1.27 1.27))))
      )
      (pin input line (at 0 -279.4 0) (length 5.08)
        (name "REFCLKN" (effects (font (size 1.27 1.27))))
        (number "111" (effects (font (size 1.27 1.27))))
      )
      (pin power_in line (at 0 -281.94 0) (length 5.08)
        (name "CGND" (effects (font (size 1.27 1.27))))
        (number "112" (effects (font (size 1.27 1.27))))
      )
      (pin power_in line (at 0 -284.48 0) (length 5.08)
        (name "AVDDH" (effects (font (size 1.27 1.27))))
        (number "113" (effects (font (size 1.27 1.27))))
      )
      (pin unconnected line (at 0 -287.02 0) (length 5.08)
        (name "NC" (effects (font (size 1.27 1.27))))
        (number "114" (effects (font (size 1.27 1.27))))
      )
      (pin input line (at 0 -289.56 0) (length 5.08)
        (name "REXT__GND" (effects (font (size 1.27 1.27))))
        (number "115" (effects (font (size 1.27 1.27))))
      )
      (pin input line (at 0 -292.1 0) (length 5.08)
        (name "REXT" (effects (font (size 1.27 1.27))))
        (number "116" (effects (font (size 1.27 1.27))))
      )
      (pin output line (at 0 -294.64 0) (length 5.08)
        (name "PET_N[3]" (effects (font (size 1.27 1.27))))
        (number "117" (effects (font (size 1.27 1.27))))
      )
      (pin output line (at 0 -297.18 0) (length 5.08)
        (name "PET_P[3]" (effects (font (size 1.27 1.27))))
        (number "118" (effects (font (size 1.27 1.27))))
      )
      (pin power_in line (at 0 -299.72 0) (length 5.08)
        (name "AVDD" (effects (font (size 1.27 1.27))))
        (number "119" (effects (font (size 1.27 1.27))))
      )
      (pin power_in line (at 0 -302.26 0) (length 5.08)
        (name "VSS" (effects (font (size 1.27 1.27))))
        (number "120" (effects (font (size 1.27 1.27))))
      )
      (pin input line (at 0 -304.8 0) (length 5.08)
        (name "PERN[3]" (effects (font (size 1.27 1.27))))
        (number "121" (effects (font (size 1.27 1.27))))
      )
      (pin input line (at 0 -307.34 0) (length 5.08)
        (name "PERP[3]" (effects (font (size 1.27 1.27))))
        (number "122" (effects (font (size 1.27 1.27))))
      )
      (pin output line (at 0 -309.88 0) (length 5.08)
        (name "PET_N[0]" (effects (font (size 1.27 1.27))))
        (number "123" (effects (font (size 1.27 1.27))))
      )
      (pin output line (at 0 -312.42 0) (length 5.08)
        (name "PET_P[0]" (effects (font (size 1.27 1.27))))
        (number "124" (effects (font (size 1.27 1.27))))
      )
      (pin power_in line (at 0 -314.96 0) (length 5.08)
        (name "AVDD" (effects (font (size 1.27 1.27))))
        (number "125" (effects (font (size 1.27 1.27))))
      )
      (pin power_in line (at 0 -317.5 0) (length 5.08)
        (name "VSS" (effects (font (size 1.27 1.27))))
        (number "126" (effects (font (size 1.27 1.27))))
      )
      (pin input line (at 0 -320.04 0) (length 5.08)
        (name "PERN[0]" (effects (font (size 1.27 1.27))))
        (number "127" (effects (font (size 1.27 1.27))))
      )
      (pin input line (at 0 -322.58 0) (length 5.08)
        (name "PERP[0]" (effects (font (size 1.27 1.27))))
        (number "128" (effects (font (size 1.27 1.27))))
      )
      (pin power_in line (at 0 -325.12 0) (length 5.08)
        (name "E_PAD" (effects (font (size 1.27 1.27))))
        (number "129" (effects (font (size 1.27 1.27))))
      )
    )
  )
)
